Unloading base
  ERROR: Unload of super-sticky module 'base' skipped

Unloading git/2.29
  ERROR: Dependent 'base' is loaded

Unloading svn/1.14
  ERROR: Dependent 'base' is loaded

Unloading gdb/9.2
  ERROR: Dependent 'base' is loaded

Unloading vim/8.2
  ERROR: Dependent 'base' is loaded
min delta: -1.0000167
convolution... 10.0 3.75
done in: 58.43099761009216
candidates: 14246343
convolution... 11.0 4.125
done in: 57.69342637062073
candidates: 11471720
convolution... 12.0 4.5
done in: 58.04420232772827
candidates: 8206728
convolution... 13.0 4.875
done in: 58.88646578788757
candidates: 5640525
convolution... 14.0 5.25
done in: 59.18835973739624
candidates: 4045319
convolution... 15.0 5.625
done in: 58.91704082489014
candidates: 2805928
convolution... 16.0 6.0
done in: 58.91398286819458
candidates: 1928442
convolution... 17.0 6.375
done in: 58.98325157165527
candidates: 1287036
convolution... 18.0 6.75
done in: 59.0282187461853
candidates: 850125
convolution... 19.0 7.125
done in: 58.76836347579956
candidates: 544880
convolution... 20.0 7.5
done in: 58.68741250038147
candidates: 347816
convolution... 21.0 7.875
done in: 58.95823526382446
candidates: 216629
convolution... 22.0 8.25
done in: 59.287904024124146
candidates: 130412
convolution... 23.0 8.625
done in: 59.140318632125854
candidates: 78635
convolution... 24.0 9.0
done in: 58.32900285720825
candidates: 45948
convolution... 25.0 9.375
done in: 59.419031381607056
candidates: 26800
convolution... 26.0 9.75
done in: 59.67129039764404
candidates: 15533
convolution... 27.0 10.125
done in: 59.93711018562317
candidates: 8598
convolution... 28.0 10.5
done in: 59.817564725875854
candidates: 4767
convolution... 29.0 10.875
done in: 59.92032527923584
candidates: 2483
convolution... 30.0 11.25
done in: 60.20117497444153
candidates: 1214
convolution... 31.0 11.625
done in: 60.37040615081787
candidates: 497
convolution... 32.0 12.0
done in: 60.53083944320679
candidates: 159
convolution... 33.0 12.375
done in: 60.44871115684509
candidates: 33
convolution... 34.0 12.75
done in: 59.89765000343323
candidates: 1
convolution... 35.0 13.125
done in: 60.55248522758484
candidates: 0
contador final: 1
convolution... 36.0 13.5
done in: 60.880330324172974
candidates: 0
contador final: 2
radios de voids encontrados: [ 0.     3.75   4.125  4.5    4.875  5.25   5.625  6.     6.375  6.75
  7.125  7.5    7.875  8.25   8.625  9.     9.375  9.75  10.125 10.5
 10.875 11.25  11.625 12.    12.375 12.75 ]
starting cleaning..
radio maximo void:  34.0 12.75 2.6666666666666665
voidsizes_explored: [ 3.75   4.125  4.5    4.875  5.25   5.625  6.     6.375  6.75   7.125
  7.5    7.875  8.25   8.625  9.     9.375  9.75  10.125 10.5   10.875
 11.25  11.625 12.    12.375 12.75 ]
void sizes: [ 3.75   4.125  4.5    4.875  5.25   5.625  6.     6.375  6.75   7.125
  7.5    7.875  8.25   8.625  9.     9.375  9.75  10.125 10.5   10.875
 11.25  11.625 12.    12.375 12.75 ]
void sizes: [12.75  12.375 12.    11.625 11.25  10.875 10.5   10.125  9.75   9.375
  9.     8.625  8.25   7.875  7.5    7.125  6.75   6.375  6.     5.625
  5.25   4.875  4.5    4.125  3.75 ]
creo linked list
cleaning in voids of size: 12.75
candidatesss: 1
busco vecinos en paralelo
creo linked list
LL calculated in time: 3.433685779571533 seg
neighbors calculated
done in: 4.452415227890015 seg
/home/arodriguez/BACCO/bias-voids/Void_Finder/cython_ver/no_cython/vfinder_mod_new.py:267: FutureWarning: Using a non-tuple sequence for multidimensional indexing is deprecated; use `arr[tuple(seq)]` instead of `arr[seq]`. In the future this will be interpreted as an array index, `arr[np.array(seq)]`, which will result either in an error or a different result.
  radios_clean[indices_candidatos_in] = -99
limpieza interna done in: 0.004104137420654297 seg
cleaning in voids of size: 12.375
candidatesss: 15
busco vecinos en paralelo
creo linked list
LL calculated in time: 3.7304210662841797 seg
neighbors calculated
done in: 4.773873329162598 seg
limpieza interna done in: 0.010611534118652344 seg
cleaning in voids of size: 12.0
candidatesss: 20
busco vecinos en paralelo
creo linked list
LL calculated in time: 4.030800819396973 seg
neighbors calculated
done in: 5.19267463684082 seg
limpieza interna done in: 0.019512414932250977 seg
cleaning in voids of size: 11.625
candidatesss: 53
busco vecinos en paralelo
creo linked list
LL calculated in time: 4.040040493011475 seg
neighbors calculated
done in: 5.497802495956421 seg
limpieza interna done in: 0.02804088592529297 seg
cleaning in voids of size: 11.25
candidatesss: 61
busco vecinos en paralelo
creo linked list
LL calculated in time: 4.0212562084198 seg
neighbors calculated
done in: 5.510202169418335 seg
limpieza interna done in: 0.011396408081054688 seg
cleaning in voids of size: 10.875
candidatesss: 183
busco vecinos en paralelo
creo linked list
LL calculated in time: 3.939908027648926 seg
neighbors calculated
done in: 6.567209005355835 seg
limpieza interna done in: 0.024829387664794922 seg
cleaning in voids of size: 10.5
candidatesss: 311
busco vecinos en paralelo
creo linked list
LL calculated in time: 3.980419874191284 seg
neighbors calculated
done in: 7.229807376861572 seg
limpieza interna done in: 0.04659295082092285 seg
cleaning in voids of size: 10.125
candidatesss: 284
busco vecinos en paralelo
creo linked list
LL calculated in time: 3.8153913021087646 seg
neighbors calculated
done in: 7.23765754699707 seg
limpieza interna done in: 0.0424962043762207 seg
cleaning in voids of size: 9.75
candidatesss: 469
busco vecinos en paralelo
creo linked list
LL calculated in time: 4.0196239948272705 seg
neighbors calculated
done in: 9.221313714981079 seg
limpieza interna done in: 0.04416608810424805 seg
cleaning in voids of size: 9.375
candidatesss: 880
busco vecinos en paralelo
creo linked list
LL calculated in time: 3.9650886058807373 seg
neighbors calculated
done in: 12.095197439193726 seg
limpieza interna done in: 0.06868362426757812 seg
cleaning in voids of size: 9.0
candidatesss: 1350
busco vecinos en paralelo
creo linked list
LL calculated in time: 3.7698233127593994 seg
neighbors calculated
done in: 16.730433702468872 seg
limpieza interna done in: 0.09880471229553223 seg
cleaning in voids of size: 8.625
candidatesss: 2034
busco vecinos en paralelo
creo linked list
LL calculated in time: 3.71903920173645 seg
neighbors calculated
done in: 24.198737859725952 seg
limpieza interna done in: 0.1379539966583252 seg
cleaning in voids of size: 8.25
candidatesss: 2945
busco vecinos en paralelo
creo linked list
LL calculated in time: 3.758477210998535 seg
neighbors calculated
done in: 31.033241033554077 seg
limpieza interna done in: 0.18409323692321777 seg
cleaning in voids of size: 7.875
candidatesss: 5225
busco vecinos en paralelo
creo linked list
LL calculated in time: 3.915905475616455 seg
neighbors calculated
done in: 51.78739142417908 seg
limpieza interna done in: 0.3391880989074707 seg
cleaning in voids of size: 7.5
candidatesss: 6473
busco vecinos en paralelo
creo linked list
LL calculated in time: 3.800373077392578 seg
neighbors calculated
done in: 62.757118940353394 seg
limpieza interna done in: 0.33681583404541016 seg
cleaning in voids of size: 7.125
candidatesss: 8717
busco vecinos en paralelo
creo linked list
LL calculated in time: 3.6283586025238037 seg
neighbors calculated
done in: 79.84872961044312 seg
limpieza interna done in: 0.372312068939209 seg
cleaning in voids of size: 6.75
candidatesss: 15028
busco vecinos en paralelo
creo linked list
LL calculated in time: 3.491342544555664 seg
neighbors calculated
done in: 136.51071524620056 seg
limpieza interna done in: 0.6520042419433594 seg
cleaning in voids of size: 6.375
candidatesss: 16462
busco vecinos en paralelo
creo linked list
LL calculated in time: 3.4784352779388428 seg
neighbors calculated
done in: 148.8459210395813 seg
limpieza interna done in: 0.5227289199829102 seg
cleaning in voids of size: 6.0
candidatesss: 24706
busco vecinos en paralelo
creo linked list
LL calculated in time: 3.3358075618743896 seg
neighbors calculated
done in: 217.75185084342957 seg
limpieza interna done in: 0.898684024810791 seg
cleaning in voids of size: 5.625
candidatesss: 35569
busco vecinos en paralelo
creo linked list
LL calculated in time: 3.2918858528137207 seg
neighbors calculated
done in: 310.2995114326477 seg
limpieza interna done in: 0.9754328727722168 seg
cleaning in voids of size: 5.25
candidatesss: 38596
busco vecinos en paralelo
creo linked list
LL calculated in time: 3.354738235473633 seg
neighbors calculated
done in: 334.822749376297 seg
limpieza interna done in: 0.7874042987823486 seg
cleaning in voids of size: 4.875
candidatesss: 63694
busco vecinos en paralelo
creo linked list
LL calculated in time: 3.0333471298217773 seg
neighbors calculated
done in: 551.8571195602417 seg
limpieza interna done in: 1.1974945068359375 seg
cleaning in voids of size: 4.5
candidatesss: 84362
busco vecinos en paralelo
creo linked list
LL calculated in time: 3.181385040283203 seg
neighbors calculated
done in: 709.0372204780579 seg
limpieza interna done in: 1.3868393898010254 seg
cleaning in voids of size: 4.125
candidatesss: 86968
busco vecinos en paralelo
creo linked list
LL calculated in time: 3.3060781955718994 seg
neighbors calculated
done in: 737.5523025989532 seg
limpieza interna done in: 1.1191191673278809 seg
cleaning in voids of size: 3.75
candidatesss: 159560
busco vecinos en paralelo
creo linked list
LL calculated in time: 2.9587926864624023 seg
neighbors calculated
done in: 1339.2316670417786 seg
limpieza interna done in: 1.6693346500396729 seg
numero de voids (con superposicion): 58732
[12.75  12.    11.625 11.25  10.875 10.5   10.125  9.75   9.375  9.
  8.625  8.25   7.875  7.5    7.125  6.75   6.375  6.     5.625  5.25
  4.875  4.5    4.125  3.75 ]
radio: 34.0 voids: 1
1
radio: 32.0 voids: 2
2
radio: 31.0 voids: 1
1
radio: 30.0 voids: 2
1
radio: 29.0 voids: 5
5
radio: 28.0 voids: 9
9
radio: 27.0 voids: 11
10
radio: 26.0 voids: 31
31
radio: 25.0 voids: 32
32
radio: 24.0 voids: 76
75
radio: 23.0 voids: 116
110
radio: 22.0 voids: 135
126
radio: 21.0 voids: 248
230
radio: 20.0 voids: 365
331
radio: 19.0 voids: 509
456
radio: 18.0 voids: 711
586
radio: 17.0 voids: 1047
830
radio: 16.0 voids: 1489
1032
radio: 15.0 voids: 2175
1344
radio: 14.0 voids: 2874
1446
radio: 13.0 voids: 4281
1632
radio: 12.0 voids: 6294
1567
radio: 11.0 voids: 8136
1061
radio: 10.0 voids: 13152
515
program finished
