Unloading base
  ERROR: Unload of super-sticky module 'base' skipped

Unloading git/2.29
  ERROR: Dependent 'base' is loaded

Unloading svn/1.14
  ERROR: Dependent 'base' is loaded

Unloading gdb/9.2
  ERROR: Dependent 'base' is loaded

Unloading vim/8.2
  ERROR: Dependent 'base' is loaded
min delta: -5.5622716
convolution... 16.0 6.0
done in: 59.04292368888855
candidates: 6975214
convolution... 17.0 6.375
done in: 59.2645537853241
candidates: 5402507
convolution... 18.0 6.75
done in: 59.25632643699646
candidates: 4158702
convolution... 19.0 7.125
done in: 59.39631772041321
candidates: 3120280
convolution... 20.0 7.5
done in: 58.77338647842407
candidates: 2334210
convolution... 21.0 7.875
done in: 58.91877841949463
candidates: 1718589
convolution... 22.0 8.25
done in: 60.28296160697937
candidates: 1242517
convolution... 23.0 8.625
done in: 59.49582076072693
candidates: 893094
convolution... 24.0 9.0
done in: 60.18554377555847
candidates: 625527
convolution... 25.0 9.375
done in: 59.75672912597656
candidates: 433158
convolution... 26.0 9.75
done in: 58.77539038658142
candidates: 296553
convolution... 27.0 10.125
done in: 60.03324222564697
candidates: 198599
convolution... 28.0 10.5
done in: 60.30459237098694
candidates: 131219
convolution... 29.0 10.875
done in: 60.545873403549194
candidates: 84668
convolution... 30.0 11.25
done in: 60.650285482406616
candidates: 52697
convolution... 31.0 11.625
done in: 60.57932138442993
candidates: 32172
convolution... 32.0 12.0
done in: 60.74044847488403
candidates: 19203
convolution... 33.0 12.375
done in: 60.64924240112305
candidates: 11203
convolution... 34.0 12.75
done in: 61.055809020996094
candidates: 6350
convolution... 35.0 13.125
done in: 61.37400984764099
candidates: 3514
convolution... 36.0 13.5
done in: 61.75619149208069
candidates: 1926
convolution... 37.0 13.875
done in: 61.35667014122009
candidates: 994
convolution... 38.0 14.25
done in: 61.54362750053406
candidates: 484
convolution... 39.0 14.625
done in: 61.484992265701294
candidates: 179
convolution... 40.0 15.0
done in: 61.75250172615051
candidates: 17
convolution... 41.0 15.375
done in: 62.19180250167847
candidates: 0
contador final: 1
convolution... 42.0 15.75
done in: 62.04180979728699
candidates: 0
contador final: 2
radios de voids encontrados: [ 0.     6.     6.375  6.75   7.125  7.5    7.875  8.25   8.625  9.
  9.375  9.75  10.125 10.5   10.875 11.25  11.625 12.    12.375 12.75
 13.125 13.5   13.875 14.25  14.625 15.   ]
starting cleaning..
radio maximo void:  40.0 15.0 2.6666666666666665
voidsizes_explored: [ 6.     6.375  6.75   7.125  7.5    7.875  8.25   8.625  9.     9.375
  9.75  10.125 10.5   10.875 11.25  11.625 12.    12.375 12.75  13.125
 13.5   13.875 14.25  14.625 15.   ]
void sizes: [ 6.     6.375  6.75   7.125  7.5    7.875  8.25   8.625  9.     9.375
  9.75  10.125 10.5   10.875 11.25  11.625 12.    12.375 12.75  13.125
 13.5   13.875 14.25  14.625 15.   ]
void sizes: [15.    14.625 14.25  13.875 13.5   13.125 12.75  12.375 12.    11.625
 11.25  10.875 10.5   10.125  9.75   9.375  9.     8.625  8.25   7.875
  7.5    7.125  6.75   6.375  6.   ]
creo linked list
cleaning in voids of size: 15.0
candidatesss: 17
busco vecinos en paralelo
creo linked list
LL calculated in time: 1.406895399093628 seg
neighbors calculated
done in: 2.110032081604004 seg
/home/arodriguez/BACCO/bias-voids/voidfinder/vfinder_mod.py:267: FutureWarning: Using a non-tuple sequence for multidimensional indexing is deprecated; use `arr[tuple(seq)]` instead of `arr[seq]`. In the future this will be interpreted as an array index, `arr[np.array(seq)]`, which will result either in an error or a different result.
  radios_clean[indices_candidatos_in] = -99
limpieza interna done in: 0.009973287582397461 seg
cleaning in voids of size: 14.625
candidatesss: 43
busco vecinos en paralelo
creo linked list
LL calculated in time: 1.4896206855773926 seg
neighbors calculated
done in: 2.3316192626953125 seg
limpieza interna done in: 0.008681535720825195 seg
cleaning in voids of size: 14.25
candidatesss: 24
busco vecinos en paralelo
creo linked list
LL calculated in time: 1.478095293045044 seg
neighbors calculated
done in: 2.338261365890503 seg
limpieza interna done in: 0.008218526840209961 seg
cleaning in voids of size: 13.875
candidatesss: 20
busco vecinos en paralelo
creo linked list
LL calculated in time: 1.5060606002807617 seg
neighbors calculated
done in: 2.225463628768921 seg
limpieza interna done in: 0.0040400028228759766 seg
cleaning in voids of size: 13.5
candidatesss: 120
busco vecinos en paralelo
creo linked list
LL calculated in time: 1.5319874286651611 seg
neighbors calculated
done in: 2.5343217849731445 seg
limpieza interna done in: 0.020395517349243164 seg
cleaning in voids of size: 13.125
candidatesss: 104
busco vecinos en paralelo
creo linked list
LL calculated in time: 1.500734806060791 seg
neighbors calculated
done in: 2.7275495529174805 seg
limpieza interna done in: 0.018489837646484375 seg
cleaning in voids of size: 12.75
candidatesss: 318
busco vecinos en paralelo
creo linked list
LL calculated in time: 1.493535041809082 seg
neighbors calculated
done in: 3.44311785697937 seg
limpieza interna done in: 0.03934645652770996 seg
cleaning in voids of size: 12.375
candidatesss: 323
busco vecinos en paralelo
creo linked list
LL calculated in time: 1.5057837963104248 seg
neighbors calculated
done in: 3.544938087463379 seg
limpieza interna done in: 0.03610801696777344 seg
cleaning in voids of size: 12.0
candidatesss: 432
busco vecinos en paralelo
creo linked list
LL calculated in time: 1.518195629119873 seg
neighbors calculated
done in: 3.9693384170532227 seg
limpieza interna done in: 0.04709815979003906 seg
cleaning in voids of size: 11.625
candidatesss: 897
busco vecinos en paralelo
creo linked list
LL calculated in time: 1.522965908050537 seg
neighbors calculated
done in: 5.819502115249634 seg
limpieza interna done in: 0.07472705841064453 seg
cleaning in voids of size: 11.25
candidatesss: 1319
busco vecinos en paralelo
creo linked list
LL calculated in time: 1.5059232711791992 seg
neighbors calculated
done in: 8.55412220954895 seg
limpieza interna done in: 0.09856629371643066 seg
cleaning in voids of size: 10.875
candidatesss: 1362
busco vecinos en paralelo
creo linked list
LL calculated in time: 1.4976093769073486 seg
neighbors calculated
done in: 7.851137399673462 seg
limpieza interna done in: 0.09495329856872559 seg
cleaning in voids of size: 10.5
candidatesss: 2149
busco vecinos en paralelo
creo linked list
LL calculated in time: 1.4945793151855469 seg
neighbors calculated
done in: 10.507778644561768 seg
limpieza interna done in: 0.12217545509338379 seg
cleaning in voids of size: 10.125
candidatesss: 3203
busco vecinos en paralelo
creo linked list
LL calculated in time: 1.4762349128723145 seg
neighbors calculated
done in: 16.461872339248657 seg
limpieza interna done in: 0.19489455223083496 seg
cleaning in voids of size: 9.75
candidatesss: 4469
busco vecinos en paralelo
creo linked list
LL calculated in time: 1.4819223880767822 seg
neighbors calculated
done in: 19.79709243774414 seg
limpieza interna done in: 0.2211301326751709 seg
cleaning in voids of size: 9.375
candidatesss: 5149
busco vecinos en paralelo
creo linked list
LL calculated in time: 1.5292489528656006 seg
neighbors calculated
done in: 22.918267488479614 seg
limpieza interna done in: 0.20592284202575684 seg
cleaning in voids of size: 9.0
candidatesss: 7160
busco vecinos en paralelo
creo linked list
LL calculated in time: 1.4302546977996826 seg
neighbors calculated
done in: 30.85642385482788 seg
limpieza interna done in: 0.25838351249694824 seg
cleaning in voids of size: 8.625
candidatesss: 8990
busco vecinos en paralelo
creo linked list
LL calculated in time: 1.4310283660888672 seg
neighbors calculated
done in: 40.21547317504883 seg
limpieza interna done in: 0.29944777488708496 seg
cleaning in voids of size: 8.25
candidatesss: 10601
busco vecinos en paralelo
creo linked list
LL calculated in time: 1.4864368438720703 seg
neighbors calculated
done in: 43.82914924621582 seg
limpieza interna done in: 0.2988319396972656 seg
cleaning in voids of size: 7.875
candidatesss: 13858
busco vecinos en paralelo
creo linked list
LL calculated in time: 1.3507518768310547 seg
neighbors calculated
done in: 55.89741921424866 seg
limpieza interna done in: 0.316906213760376 seg
cleaning in voids of size: 7.5
candidatesss: 16828
busco vecinos en paralelo
creo linked list
LL calculated in time: 1.4359045028686523 seg
neighbors calculated
done in: 66.79141283035278 seg
limpieza interna done in: 0.31630444526672363 seg
cleaning in voids of size: 7.125
candidatesss: 19670
busco vecinos en paralelo
creo linked list
LL calculated in time: 1.296769380569458 seg
neighbors calculated
done in: 77.42264890670776 seg
limpieza interna done in: 0.33127760887145996 seg
cleaning in voids of size: 6.75
candidatesss: 27853
busco vecinos en paralelo
creo linked list
LL calculated in time: 1.3452575206756592 seg
neighbors calculated
done in: 108.56474351882935 seg
limpieza interna done in: 0.421276330947876 seg
cleaning in voids of size: 6.375
candidatesss: 27701
busco vecinos en paralelo
creo linked list
LL calculated in time: 1.255012035369873 seg
neighbors calculated
done in: 106.39204049110413 seg
limpieza interna done in: 0.33285069465637207 seg
cleaning in voids of size: 6.0
candidatesss: 35773
busco vecinos en paralelo
creo linked list
LL calculated in time: 1.151710033416748 seg
neighbors calculated
done in: 138.31645035743713 seg
limpieza interna done in: 0.4013369083404541 seg
numero de voids (con superposicion): 7573
[13.875 13.125 12.75  12.375 12.    11.625 11.25  10.875 10.5   10.125
  9.75   9.375  9.     8.625  8.25   7.875  7.5    7.125  6.75   6.375
  6.   ]
radio: 37.0 voids: 2
2
radio: 35.0 voids: 2
2
radio: 34.0 voids: 6
6
radio: 33.0 voids: 6
5
radio: 32.0 voids: 12
8
radio: 31.0 voids: 17
11
radio: 30.0 voids: 21
15
radio: 29.0 voids: 33
24
radio: 28.0 voids: 40
28
radio: 27.0 voids: 57
38
radio: 26.0 voids: 79
47
radio: 25.0 voids: 93
52
radio: 24.0 voids: 133
62
radio: 23.0 voids: 201
93
radio: 22.0 voids: 260
90
radio: 21.0 voids: 318
96
radio: 20.0 voids: 490
124
radio: 19.0 voids: 567
117
radio: 18.0 voids: 819
76
radio: 17.0 voids: 1086
74
radio: 16.0 voids: 1676
72
program finished
