Unloading base
  ERROR: Unload of super-sticky module 'base' skipped

Unloading git/2.29
  ERROR: Dependent 'base' is loaded

Unloading svn/1.14
  ERROR: Dependent 'base' is loaded

Unloading gdb/9.2
  ERROR: Dependent 'base' is loaded

Unloading vim/8.2
  ERROR: Dependent 'base' is loaded
  File "/home/arodriguez/BACCO/bias-voids/Void_Finder/cython_ver/voidfinder_maxsize.py", line 62
    print('done in:' time.time()-time_start)
                        ^
srun: error: clemente02: task 0: Exited with exit code 1
SyntaxError: invalid syntax
